﻿{
    "_id": "course",
    "_type": "course",
    "title": "Mit dem Ziel „Conversions“ Kunden gewinnen",
    "displayTitle": "Mit dem Ziel „Conversions“ Kunden gewinnen",
    "body": "",
    "_buttons": {
        "_submit": {
            "buttonText": "Senden",
            "ariaLabel": "Klicke hier, um deine Antwort zu senden."
        },
        "_reset": {
            "buttonText": "Zurücksetzen",
            "ariaLabel": "Klicke hier, um die Frage zurückzusetzen."
        },
        "_showCorrectAnswer": {
            "buttonText": "Richtige Antwort",
            "ariaLabel": "Klicke hier, um die richtige Antwort anzuzeigen."
        },
        "_hideCorrectAnswer": {
            "buttonText": "Meine Antwort",
            "ariaLabel": "Klicke hier, um die angegebene Antwort anzuzeigen."
        },
        "_showFeedback": {
            "buttonText": "Feedback anzeigen",
            "ariaLabel": "Klicke hier, um das Feedback zur Frage erneut anzuzeigen."
        },
        "remainingAttemptsText": "Verbleibende Versuche",
        "remainingAttemptText": "Letzter Versuch",
        "disabledAriaLabel": "Dieser Button ist im Moment deaktiviert."
    },
    "_globals": {
        "_components": {
            "_accordion": {
                "ariaRegion": "Diese Komponente besteht aus ausklappbaren Inhaltsfeldern, die Text enthalten. Wähle die Elementtitel aus, um die entsprechenden Felder anzuzeigen oder auszublenden.",
                "instruction": ""
            },
            "_blank": {
                "ariaRegion": "",
                "instruction": ""
            },
            "_gmcq": {
                "ariaRegion": "Diese Komponente ist eine grafische Multiple-Choice-Frage. Wähle eine Antwort und danach den Button „Senden“ weiter unten aus.",
                "instruction": ""
            },
            "_graphic": {
                "ariaRegion": "",
                "instruction": ""
            },
            "_hotGraphic": {
                "ariaRegion": "In der folgenden Komponente kannst du Hotspots auswählen, die über ein Bild gelagert sind. Wähle einen Hotspot aus, um ein Popup-Fenster mit Bild und Text anzuzeigen. Wähle den Button „Schließen“ aus, um das Popup-Fenster zu schließen.",
                "instruction": ""
            },
            "_matching": {
                "ariaRegion": "In dieser Fragenkomponente musst du aus einer Dropdown-Liste die passende Antwort auswählen. Wähle die Antworten und danach den Button „Senden“ weiter unten aus.",
                "instruction": ""
            },
            "_mcq": {
                "ariaRegion": "Diese Komponente ist eine Multiple-Choice-Frage. Wähle eine Antwort und danach den Button „Senden“ weiter unten aus",
                "instruction": ""
            },
            "_media": {
                "ariaRegion": "Das ist eine Medienkomponente, die ein Video abspielt. Wähle die Wiedergabe-/Pausetaste aus, um den Inhalt anzusehen bzw. anzuhören. Alternativ findest du über den unten stehenden Link eine Mitschrift.",
                "instruction": ""
            },
            "_narrative": {
                "ariaRegion": "Diese Komponente zeigt eine Bildergalerie mit Begleittext an. Mit den Navigationselementen „Weiter“ und „Zurück“ navigierst du durch den Text.",
                "instruction": ""
            },
            "_slider": {
                "ariaRegion": "In dieser Komponente musst du die Frage beantworten, indem du den richtigen Wert auswählst. Wähle einen Wert und danach den Button „Senden“ weiter unten aus.",
                "instruction": ""
            },
            "_text": {
                "ariaRegion": "",
                "instruction": ""
            },
            "_textInput": {
                "ariaRegion": "In dieser Fragenkomponente musst du deine Antwort in das Textfeld eingeben. Beantworte die Frage und wähle dann den Button „Senden“ weiter unten aus.",
                "instruction": ""
            }
        },
        "_extensions": {
            "_pageLevelProgress": {
                "pageLevelProgress": "Seitenabschnitte",
                "pageLevelProgressEnd": "Du hast das Ende der Liste der Seitenabschnitte erreicht.",
                "pageLevelProgressIndicatorBar": "Fortschrittsbalken Klicke hier, um deinen aktuellen Fortschritt anzuzeigen, und wähle ein Element aus, um dorthin zu navigieren. Du hast den Kurs abgeschlossen. ",
                "optionalContent": "Optionaler Inhalt"
            }
        },
        "_menu": {
            "_boxmenu": {
                "ariaRegion": "Menü",
                "menuItem": "Menüelement",
                "menuEnd": "Du hast das Ende des Menüs erreicht."
            }
        },
        "_accessibility": {
            "_accessibilityToggleTextOn": "Barrierefreiheit aktivieren?",
            "_accessibilityToggleTextOff": "Barrierefreiheit deaktivieren?",
            "_accessibilityInstructions": {
                "touch": "Nutzungsanweisungen Wische nach links, um weiterzugehen. Wische nach rechts, um zurückzugehen. Wähle durch Doppeltippen aus. Wische mit zwei Fingern nach oben, um auf der Seite nach oben zu gehen.",
                "notouch": "Nutzungsanweisungen Drücke die Tabulatortaste, um weiterzugehen. Drücke Umschalt&#160;+&#160;Tabulator, um zurückzugehen. Drücke die Eingabetaste, um auszuwählen. Drücke die Escape-Taste, um auf der Seite nach oben zu gehen.",
                "ipad": "Nutzungsanweisungen für Touchscreens Wische nach links, um weiterzugehen. Wische nach rechts, um zurückzugehen. Wähle durch Doppeltippen aus. Wische mit zwei Fingern nach oben, um auf der Seite nach oben zu gehen. Nutzungsanweisungen für Tastaturen Wähle „Links“, um weiterzugehen. Wähle „Rechts“, um zurückzugehen. Wähle gleichzeitig „Nach oben“ und „Nach unten“, um eine Auswahl zu treffen."
            },
            "_ariaLabels": {
                "navigation": "Kursnavigationsleiste",
                "menuLoaded": "Menü geladen",
                "menu": "Menü",
                "page": "Seite",
                "pageLoaded": "Seite geladen",
                "pageEnd": "Du hast das Ende der Seite erreicht.",
                "previous": "Zurück",
                "navigationBack": "Zurück navigieren",
                "navigationDrawer": "Kursressourcen öffnen",
                "close": "Schließen",
                "closeDrawer": "Navigationsfach schließen",
                "closeResources": "Ressourcen schließen",
                "resourcesEnd": "Du hast das Ende der Ressourcenliste erreicht.",
                "drawerBack": "Zurück zum Navigationsfach",
                "drawer": "Oberes seitliches Navigationsfach",
                "closePopup": "Popup schließen",
                "next": "Weiter",
                "done": "Fertig",
                "complete": "Abgeschlossen",
                "incomplete": "Unvollständig",
                "incorrect": "Falsch",
                "correct": "Richtig",
                "locked": "Gesperrt",
                "accessibilityToggleButton": "Über diesen Button kannst du die Barrierefreiheit aktivieren oder deaktivieren.",
                "feedbackPopUp": "Popup geöffnet",
                "menuBack": "Zurück zum Menü",
                "visited": "Besucht"
            }
        }
    },
    "_latestTrackingId": 241,
    "_pageLevelProgress": {
        "_isEnabled": true,
        "_altText": "der Komponenten auf dieser Seite sind abgeschlossen."
    },
    "_bookmarking": {
        "_isEnabled": true,
        "_level": "component",
        "title": "Lesezeichen",
        "body": "Möchtest du dort fortfahren, wo du aufgehört hast?",
        "_buttons": {
            "yes": "Ja",
            "no": "Nein"
        }
    },
    "_analytics": {
        "_isEnabled": true
    }
}